<?xml version="1.0" encoding="UTF-8" standalone="no"?>
<!-- Created with Inkscape (http://www.inkscape.org/) -->

<svg
   xmlns:osb="http://www.openswatchbook.org/uri/2009/osb"
   xmlns:dc="http://purl.org/dc/elements/1.1/"
   xmlns:cc="http://creativecommons.org/ns#"
   xmlns:rdf="http://www.w3.org/1999/02/22-rdf-syntax-ns#"
   xmlns:svg="http://www.w3.org/2000/svg"
   xmlns="http://www.w3.org/2000/svg"
   xmlns:sodipodi="http://sodipodi.sourceforge.net/DTD/sodipodi-0.dtd"
   xmlns:inkscape="http://www.inkscape.org/namespaces/inkscape"
   inkscape:version="0.91 r13725"
   version="1.1"
   id="svg2"
   viewBox="0 0 744.09448819 1052.3622047"
   height="297mm"
   width="210mm"
   sodipodi:docname="c_triangle.svg">
  <defs
     id="defs4">
    <linearGradient
       id="linearGradient7094"
       osb:paint="solid">
      <stop
         style="stop-color:#000000;stop-opacity:1;"
         offset="0"
         id="stop7096" />
    </linearGradient>
  </defs>
  <sodipodi:namedview
     inkscape:guide-bbox="true"
     showguides="false"
     showgrid="false"
     inkscape:current-layer="layer1"
     inkscape:document-units="px"
     inkscape:cy="872.10545"
     inkscape:cx="386.11023"
     inkscape:zoom="3.9329167"
     inkscape:pageshadow="2"
     inkscape:pageopacity="0.0"
     borderopacity="1.0"
     bordercolor="#666666"
     pagecolor="#ffffff"
     id="base">
    <sodipodi:guide
       position="183.84776,776.80732"
       orientation="0,1"
       id="guide4138" />
    <sodipodi:guide
       position="369.78165,809.88245"
       orientation="1,0"
       id="guide4140" />
    <sodipodi:guide
       position="369.78165,925.06034"
       orientation="-0.94275795,0.33347779"
       id="guide4142"
       inkscape:label=""
       inkscape:color="rgb(0,0,255)" />
    <sodipodi:guide
       position="369.78165,925.06034"
       orientation="0.77184657,0.63580883"
       id="guide4144"
       inkscape:label=""
       inkscape:color="rgb(0,0,255)" />
    <sodipodi:guide
       position="369.78165,925.06034"
       orientation="-0.98480775,-0.17364818"
       id="guide4146"
       inkscape:label="Center"
       inkscape:color="rgb(0,0,255)" />
  </sodipodi:namedview>
  <metadata
     id="metadata7">
    <rdf:RDF>
      <cc:Work
         rdf:about="">
        <dc:format>image/svg+xml</dc:format>
        <dc:type
           rdf:resource="http://purl.org/dc/dcmitype/StillImage" />
      </cc:Work>
    </rdf:RDF>
  </metadata>
  <g
     inkscape:label="Layer 1"
     inkscape:groupmode="layer"
     id="layer1">
    <path
       style="opacity:1;fill:none;fill-opacity:1;fill-rule:nonzero;stroke:#0000ff;stroke-width:1;stroke-linecap:butt;stroke-linejoin:miter;stroke-miterlimit:4;stroke-dasharray:none;stroke-dashoffset:0;stroke-opacity:1"
       id="path5581"
       sodipodi:type="arc"
       sodipodi:cx="268.09171"
       sodipodi:cy="181.70825"
       sodipodi:rx="32.583218"
       sodipodi:ry="32.583218"
       sodipodi:start="1.7453293"
       sodipodi:end="2.7743754"
       d="M 262.43369,213.79646 A 32.583218,32.583218 0 0 1 237.68081,193.40627"
       transform="matrix(0.7668173,-0.64186542,0.64186542,0.7668173,64.091286,96.561567)"
       sodipodi:open="true"
       inkscape:export-xdpi="90"
       inkscape:export-ydpi="90" />
    <rect
       style="opacity:1;fill:none;fill-opacity:1;fill-rule:nonzero;stroke:#000000;stroke-width:1.39633512;stroke-linecap:butt;stroke-linejoin:miter;stroke-miterlimit:4;stroke-dasharray:1.39633518, 1.39633518;stroke-dashoffset:0.13963351;stroke-opacity:1"
       id="rect4459"
       width="15.396699"
       height="15.396699"
       x="458.96268"
       y="165.23026"
       transform="matrix(0,0.71616043,-0.71616043,0,516.06981,-70.70221)" />
    <text
       xml:space="preserve"
       style="font-style:normal;font-weight:normal;font-size:7.5px;line-height:125%;font-family:sans-serif;letter-spacing:0px;word-spacing:0px;fill:#0000ff;fill-opacity:1;stroke:none;stroke-width:1px;stroke-linecap:butt;stroke-linejoin:miter;stroke-opacity:1"
       x="358.41541"
       y="219.29262"
       id="text7423-7"
       sodipodi:linespacing="125%"
       transform="translate(19.689073,-47.830021)"><tspan
         sodipodi:role="line"
         id="tspan7425-3"
         x="358.41541"
         y="219.29262">c<tspan
   style="font-size:64.99999762%;baseline-shift:sub;fill:#0000ff;fill-opacity:1"
   id="tspan4538" /></tspan></text>
    <path
       style="fill:none;fill-rule:evenodd;stroke:#0000ff;stroke-width:1px;stroke-linecap:butt;stroke-linejoin:miter;stroke-opacity:1"
       d="m 275.62049,99.478313 198.46389,0"
       id="path4435"
       inkscape:connector-curvature="0"
       transform="matrix(0,1,-1,0,486.20199,-205.25021)" />
    <path
       transform="matrix(0,0.86877266,-0.65243313,0,776.50126,70.0657)"
       style="display:inline;opacity:1;fill:none;fill-opacity:0.23076926;fill-rule:nonzero;stroke:#000000;stroke-width:1.32824725;stroke-linecap:round;stroke-linejoin:round;stroke-miterlimit:4;stroke-dasharray:none;stroke-dashoffset:35.82170105;stroke-opacity:1"
       d="M 0.48036553,597.40061 229.04734,377.93156 l 0,440.86039 z"
       id="rect4317"
       inkscape:connector-curvature="0"
       sodipodi:nodetypes="cccc" />
    <text
       xml:space="preserve"
       style="font-style:normal;font-weight:normal;font-size:7.5px;line-height:125%;font-family:sans-serif;letter-spacing:0px;word-spacing:0px;fill:#000000;fill-opacity:1;stroke:none;stroke-width:1px;stroke-linecap:butt;stroke-linejoin:miter;stroke-opacity:1"
       x="388.78348"
       y="166.77602"
       id="text5496"
       sodipodi:linespacing="125%"
       transform="translate(-6.9082194,123.83141)"><tspan
         sodipodi:role="line"
         id="tspan5498"
         x="388.78348"
         y="166.77602">w<tspan
   style="font-size:64.99999762%;baseline-shift:sub"
   id="tspan5500" /></tspan></text>
    <text
       xml:space="preserve"
       style="font-style:normal;font-weight:normal;font-size:7.5px;line-height:125%;font-family:sans-serif;letter-spacing:0px;word-spacing:0px;fill:#0000ff;fill-opacity:1;stroke:none;stroke-width:1px;stroke-linecap:butt;stroke-linejoin:miter;stroke-opacity:1"
       x="451.92166"
       y="145.48784"
       id="text7058"
       sodipodi:linespacing="125%"
       transform="translate(-58.072582,-39.421796)"
       inkscape:export-xdpi="90"
       inkscape:export-ydpi="90"><tspan
         sodipodi:role="line"
         id="tspan7060"
         x="451.92166"
         y="145.48784"
         style="font-style:normal;font-variant:normal;font-weight:500;font-stretch:normal;font-family:'TeX Gyre Chorus';-inkscape-font-specification:'TeX Gyre Chorus Medium'">A'</tspan></text>
    <path
       inkscape:export-ydpi="90"
       inkscape:export-xdpi="90"
       sodipodi:nodetypes="ccccc"
       inkscape:connector-curvature="0"
       id="rect7090-3-7"
       d="m 317.7743,274.81151 122.29831,-0.0152 c 0,9.66535 -57.11478,-1.18798 -61.02176,5.46433 -3.99356,-6.79975 -61.27655,4.48377 -61.27655,-5.44915 z"
       style="opacity:1;fill:none;fill-opacity:1;fill-rule:nonzero;stroke:#000000;stroke-width:0.42213774;stroke-linecap:butt;stroke-linejoin:miter;stroke-miterlimit:4;stroke-dasharray:0.42213775, 0.42213775;stroke-dashoffset:0.04221377;stroke-opacity:1"
       transform="matrix(2.3487201,0,0,2.3892432,-503.84329,-387.43848)" />
  </g>
</svg>
