<?xml version="1.0" encoding="UTF-8" standalone="no"?>
<!-- Created with Inkscape (http://www.inkscape.org/) -->

<svg
   xmlns:dc="http://purl.org/dc/elements/1.1/"
   xmlns:cc="http://creativecommons.org/ns#"
   xmlns:rdf="http://www.w3.org/1999/02/22-rdf-syntax-ns#"
   xmlns:svg="http://www.w3.org/2000/svg"
   xmlns="http://www.w3.org/2000/svg"
   xmlns:sodipodi="http://sodipodi.sourceforge.net/DTD/sodipodi-0.dtd"
   xmlns:inkscape="http://www.inkscape.org/namespaces/inkscape"
   width="297mm"
   height="210mm"
   viewBox="0 0 1052.3622 744.09448"
   id="svg2"
   version="1.1"
   inkscape:version="0.91 r13725"
   sodipodi:docname="camera_placement.svg">
  <defs
     id="defs4">
    <marker
       inkscape:stockid="Arrow1Lend"
       orient="auto"
       refY="0.0"
       refX="0.0"
       id="marker4705"
       style="overflow:visible;"
       inkscape:isstock="true">
      <path
         id="path4707"
         d="M 0.0,0.0 L 5.0,-5.0 L -12.5,0.0 L 5.0,5.0 L 0.0,0.0 z "
         style="fill-rule:evenodd;stroke:#000000;stroke-width:1pt;stroke-opacity:1;fill:#000000;fill-opacity:1"
         transform="scale(0.8) rotate(180) translate(12.5,0)" />
    </marker>
    <marker
       inkscape:stockid="Arrow1Lstart"
       orient="auto"
       refY="0.0"
       refX="0.0"
       id="marker4701"
       style="overflow:visible"
       inkscape:isstock="true">
      <path
         id="path4703"
         d="M 0.0,0.0 L 5.0,-5.0 L -12.5,0.0 L 5.0,5.0 L 0.0,0.0 z "
         style="fill-rule:evenodd;stroke:#000000;stroke-width:1pt;stroke-opacity:1;fill:#000000;fill-opacity:1"
         transform="scale(0.8) translate(12.5,0)" />
    </marker>
    <marker
       inkscape:stockid="Arrow1Lend"
       orient="auto"
       refY="0.0"
       refX="0.0"
       id="marker4593"
       style="overflow:visible;"
       inkscape:isstock="true">
      <path
         id="path4595"
         d="M 0.0,0.0 L 5.0,-5.0 L -12.5,0.0 L 5.0,5.0 L 0.0,0.0 z "
         style="fill-rule:evenodd;stroke:#000000;stroke-width:1pt;stroke-opacity:1;fill:#000000;fill-opacity:1"
         transform="scale(0.8) rotate(180) translate(12.5,0)" />
    </marker>
    <marker
       inkscape:stockid="Arrow1Lstart"
       orient="auto"
       refY="0.0"
       refX="0.0"
       id="marker4589"
       style="overflow:visible"
       inkscape:isstock="true">
      <path
         id="path4591"
         d="M 0.0,0.0 L 5.0,-5.0 L -12.5,0.0 L 5.0,5.0 L 0.0,0.0 z "
         style="fill-rule:evenodd;stroke:#000000;stroke-width:1pt;stroke-opacity:1;fill:#000000;fill-opacity:1"
         transform="scale(0.8) translate(12.5,0)" />
    </marker>
    <marker
       inkscape:stockid="Arrow1Lstart"
       orient="auto"
       refY="0.0"
       refX="0.0"
       id="marker4583"
       style="overflow:visible"
       inkscape:isstock="true">
      <path
         id="path4585"
         d="M 0.0,0.0 L 5.0,-5.0 L -12.5,0.0 L 5.0,5.0 L 0.0,0.0 z "
         style="fill-rule:evenodd;stroke:#000000;stroke-width:1pt;stroke-opacity:1;fill:#000000;fill-opacity:1"
         transform="scale(0.8) translate(12.5,0)" />
    </marker>
    <marker
       inkscape:stockid="Arrow1Lend"
       orient="auto"
       refY="0.0"
       refX="0.0"
       id="marker4579"
       style="overflow:visible;"
       inkscape:isstock="true">
      <path
         id="path4581"
         d="M 0.0,0.0 L 5.0,-5.0 L -12.5,0.0 L 5.0,5.0 L 0.0,0.0 z "
         style="fill-rule:evenodd;stroke:#000000;stroke-width:1pt;stroke-opacity:1;fill:#000000;fill-opacity:1"
         transform="scale(0.8) rotate(180) translate(12.5,0)" />
    </marker>
    <marker
       inkscape:stockid="Arrow1Lstart"
       orient="auto"
       refY="0.0"
       refX="0.0"
       id="marker4575"
       style="overflow:visible"
       inkscape:isstock="true">
      <path
         id="path4577"
         d="M 0.0,0.0 L 5.0,-5.0 L -12.5,0.0 L 5.0,5.0 L 0.0,0.0 z "
         style="fill-rule:evenodd;stroke:#000000;stroke-width:1pt;stroke-opacity:1;fill:#000000;fill-opacity:1"
         transform="scale(0.8) translate(12.5,0)" />
    </marker>
    <marker
       inkscape:stockid="Arrow1Lend"
       orient="auto"
       refY="0.0"
       refX="0.0"
       id="marker4569"
       style="overflow:visible;"
       inkscape:isstock="true">
      <path
         id="path4571"
         d="M 0.0,0.0 L 5.0,-5.0 L -12.5,0.0 L 5.0,5.0 L 0.0,0.0 z "
         style="fill-rule:evenodd;stroke:#000000;stroke-width:1pt;stroke-opacity:1;fill:#000000;fill-opacity:1"
         transform="scale(0.8) rotate(180) translate(12.5,0)" />
    </marker>
    <marker
       inkscape:stockid="Arrow1Lstart"
       orient="auto"
       refY="0.0"
       refX="0.0"
       id="marker4565"
       style="overflow:visible"
       inkscape:isstock="true">
      <path
         id="path4567"
         d="M 0.0,0.0 L 5.0,-5.0 L -12.5,0.0 L 5.0,5.0 L 0.0,0.0 z "
         style="fill-rule:evenodd;stroke:#000000;stroke-width:1pt;stroke-opacity:1;fill:#000000;fill-opacity:1"
         transform="scale(0.8) translate(12.5,0)" />
    </marker>
    <marker
       inkscape:stockid="Arrow1Lstart"
       orient="auto"
       refY="0.0"
       refX="0.0"
       id="marker4561"
       style="overflow:visible"
       inkscape:isstock="true">
      <path
         id="path4563"
         d="M 0.0,0.0 L 5.0,-5.0 L -12.5,0.0 L 5.0,5.0 L 0.0,0.0 z "
         style="fill-rule:evenodd;stroke:#000000;stroke-width:1pt;stroke-opacity:1;fill:#000000;fill-opacity:1"
         transform="scale(0.8) translate(12.5,0)" />
    </marker>
    <marker
       inkscape:stockid="Arrow1Lstart"
       orient="auto"
       refY="0.0"
       refX="0.0"
       id="marker4555"
       style="overflow:visible"
       inkscape:isstock="true">
      <path
         id="path4557"
         d="M 0.0,0.0 L 5.0,-5.0 L -12.5,0.0 L 5.0,5.0 L 0.0,0.0 z "
         style="fill-rule:evenodd;stroke:#000000;stroke-width:1pt;stroke-opacity:1;fill:#000000;fill-opacity:1"
         transform="scale(0.8) translate(12.5,0)" />
    </marker>
    <marker
       inkscape:stockid="Arrow1Lend"
       orient="auto"
       refY="0.0"
       refX="0.0"
       id="marker4551"
       style="overflow:visible;"
       inkscape:isstock="true">
      <path
         id="path4553"
         d="M 0.0,0.0 L 5.0,-5.0 L -12.5,0.0 L 5.0,5.0 L 0.0,0.0 z "
         style="fill-rule:evenodd;stroke:#000000;stroke-width:1pt;stroke-opacity:1;fill:#000000;fill-opacity:1"
         transform="scale(0.8) rotate(180) translate(12.5,0)" />
    </marker>
    <marker
       inkscape:stockid="Arrow1Lstart"
       orient="auto"
       refY="0.0"
       refX="0.0"
       id="marker4547"
       style="overflow:visible"
       inkscape:isstock="true">
      <path
         id="path4549"
         d="M 0.0,0.0 L 5.0,-5.0 L -12.5,0.0 L 5.0,5.0 L 0.0,0.0 z "
         style="fill-rule:evenodd;stroke:#000000;stroke-width:1pt;stroke-opacity:1;fill:#000000;fill-opacity:1"
         transform="scale(0.8) translate(12.5,0)" />
    </marker>
    <marker
       inkscape:stockid="Arrow1Lend"
       orient="auto"
       refY="0.0"
       refX="0.0"
       id="Arrow1Lend"
       style="overflow:visible;"
       inkscape:isstock="true">
      <path
         id="path4282"
         d="M 0.0,0.0 L 5.0,-5.0 L -12.5,0.0 L 5.0,5.0 L 0.0,0.0 z "
         style="fill-rule:evenodd;stroke:#000000;stroke-width:1pt;stroke-opacity:1;fill:#000000;fill-opacity:1"
         transform="scale(0.8) rotate(180) translate(12.5,0)" />
    </marker>
    <marker
       inkscape:stockid="Arrow1Lstart"
       orient="auto"
       refY="0.0"
       refX="0.0"
       id="Arrow1Lstart"
       style="overflow:visible"
       inkscape:isstock="true">
      <path
         id="path4279"
         d="M 0.0,0.0 L 5.0,-5.0 L -12.5,0.0 L 5.0,5.0 L 0.0,0.0 z "
         style="fill-rule:evenodd;stroke:#000000;stroke-width:1pt;stroke-opacity:1;fill:#000000;fill-opacity:1"
         transform="scale(0.8) translate(12.5,0)" />
    </marker>
  </defs>
  <sodipodi:namedview
     id="base"
     pagecolor="#ffffff"
     bordercolor="#666666"
     borderopacity="1.0"
     inkscape:pageopacity="0.0"
     inkscape:pageshadow="2"
     inkscape:zoom="0.82485316"
     inkscape:cx="403.18755"
     inkscape:cy="364.65719"
     inkscape:document-units="mm"
     inkscape:current-layer="layer3"
     showgrid="false"
     showguides="false"
     inkscape:guide-bbox="true"
     objecttolerance="20"
     guidetolerance="20"
     borderlayer="false">
    <sodipodi:guide
       position="177.16536,0"
       orientation="1,0"
       id="guide4136"
       inkscape:label=""
       inkscape:color="rgb(0,0,255)" />
    <inkscape:grid
       type="xygrid"
       id="grid4140" />
    <sodipodi:guide
       position="885.82679,0"
       orientation="1,0"
       id="guide4142"
       inkscape:label=""
       inkscape:color="rgb(0,0,255)" />
    <sodipodi:guide
       position="0,708.66141"
       orientation="0,1"
       id="guide4144"
       inkscape:label=""
       inkscape:color="rgb(0,0,255)" />
    <sodipodi:guide
       position="0,354.3307"
       orientation="0,1"
       id="guide4148"
       inkscape:label=""
       inkscape:color="rgb(0,0,255)" />
    <sodipodi:guide
       position="194.88189,0"
       orientation="1,0"
       id="guide4154"
       inkscape:label=""
       inkscape:color="rgb(0,0,255)" />
    <sodipodi:guide
       position="868.11025,0"
       orientation="1,0"
       id="guide4156"
       inkscape:label=""
       inkscape:color="rgb(0,0,255)" />
    <sodipodi:guide
       position="0,690.94488"
       orientation="0,1"
       id="guide4158"
       inkscape:label=""
       inkscape:color="rgb(0,0,255)" />
    <sodipodi:guide
       position="0,400.39369"
       orientation="0,1"
       id="guide4162"
       inkscape:label=""
       inkscape:color="rgb(0,0,255)" />
    <sodipodi:guide
       position="0,531.49606"
       orientation="0,1"
       id="guide4164"
       inkscape:label=""
       inkscape:color="rgb(4,255,0)" />
    <sodipodi:guide
       position="531.49607,0"
       orientation="1,0"
       id="guide4166"
       inkscape:label=""
       inkscape:color="rgb(30,255,0)" />
    <sodipodi:guide
       position="224.70521,495.54553"
       orientation="1,0"
       id="guide4344"
       inkscape:label=""
       inkscape:color="rgb(0,0,255)" />
    <sodipodi:guide
       position="835.9026,442.89788"
       orientation="1,0"
       id="guide4383" />
    <sodipodi:guide
       position="330.83014,597.95051"
       orientation="1,0"
       id="guide4405" />
    <sodipodi:guide
       position="729.97555,558.80356"
       orientation="1,0"
       id="guide4407" />
    <sodipodi:guide
       position="160.42575,303.19698"
       orientation="0,1"
       id="guide4269" />
    <sodipodi:guide
       position="311.64045,503.53727"
       orientation="0,1"
       id="guide4271" />
  </sodipodi:namedview>
  <metadata
     id="metadata7">
    <rdf:RDF>
      <cc:Work
         rdf:about="">
        <dc:format>image/svg+xml</dc:format>
        <dc:type
           rdf:resource="http://purl.org/dc/dcmitype/StillImage" />
        <dc:title />
      </cc:Work>
    </rdf:RDF>
  </metadata>
  <g
     inkscape:label="Cameras"
     inkscape:groupmode="layer"
     id="layer1"
     transform="translate(0,-308.26772)">
    <rect
       style="opacity:1;fill:none;fill-opacity:1;fill-rule:nonzero;stroke:#000000;stroke-width:1;stroke-linecap:round;stroke-linejoin:round;stroke-miterlimit:4;stroke-dasharray:none;stroke-dashoffset:35.82170105;stroke-opacity:1"
       id="rect4150"
       width="708.66144"
       height="354.33072"
       x="177.16536"
       y="212.59842"
       transform="translate(0,131.10237)" />
    <g
       id="g4334"
       transform="matrix(0.32114183,-0.32114183,0.33868569,0.33868569,0.28728,229.10381)">
      <path
         transform="translate(0,308.26772)"
         inkscape:connector-curvature="0"
         id="path4330"
         d="m -104.75388,423.86243 0,61.87534"
         style="fill:none;fill-rule:evenodd;stroke:#000000;stroke-width:2;stroke-linecap:butt;stroke-linejoin:miter;stroke-miterlimit:4;stroke-dasharray:none;stroke-opacity:1" />
      <path
         style="fill:none;fill-rule:evenodd;stroke:#000000;stroke-width:2;stroke-linecap:butt;stroke-linejoin:miter;stroke-miterlimit:4;stroke-dasharray:none;stroke-opacity:1"
         d="m -104.75388,423.86243 0,61.87534"
         id="path4332"
         inkscape:connector-curvature="0"
         transform="matrix(0,1,-1,0,350.04622,867.8217)" />
    </g>
    <g
       transform="matrix(-0.32114183,-0.32114183,-0.33868569,0.33868569,1061.5639,229.10381)"
       id="g4377">
      <path
         style="fill:none;fill-rule:evenodd;stroke:#000000;stroke-width:2;stroke-linecap:butt;stroke-linejoin:miter;stroke-miterlimit:4;stroke-dasharray:none;stroke-opacity:1"
         d="m -104.75388,423.86243 0,61.87534"
         id="path4379"
         inkscape:connector-curvature="0"
         transform="translate(0,308.26772)" />
      <path
         transform="matrix(0,1,-1,0,350.04622,867.8217)"
         inkscape:connector-curvature="0"
         id="path4381"
         d="m -104.75388,423.86243 0,61.87534"
         style="fill:none;fill-rule:evenodd;stroke:#000000;stroke-width:2;stroke-linecap:butt;stroke-linejoin:miter;stroke-miterlimit:4;stroke-dasharray:none;stroke-opacity:1" />
    </g>
    <g
       style="fill:#3f6b00;fill-opacity:0.23076926"
       transform="matrix(0.32114183,-0.32114183,0.33868569,0.33868569,106.58649,229.10381)"
       id="g4389">
      <path
         style="fill:#3f6b00;fill-opacity:0.23076926;fill-rule:evenodd;stroke:#000000;stroke-width:2;stroke-linecap:butt;stroke-linejoin:miter;stroke-miterlimit:4;stroke-dasharray:none;stroke-opacity:1"
         d="m -104.75388,423.86243 0,61.87534"
         id="path4391"
         inkscape:connector-curvature="0"
         transform="translate(0,308.26772)" />
      <path
         transform="matrix(0,1,-1,0,350.04622,867.8217)"
         inkscape:connector-curvature="0"
         id="path4393"
         d="m -104.75388,423.86243 0,61.87534"
         style="fill:#3f6b00;fill-opacity:0.23076926;fill-rule:evenodd;stroke:#000000;stroke-width:2;stroke-linecap:butt;stroke-linejoin:miter;stroke-miterlimit:4;stroke-dasharray:none;stroke-opacity:1" />
    </g>
    <g
       style="fill:#3f6b00;fill-opacity:0.23076926"
       id="g4399"
       transform="matrix(-0.32114183,-0.32114183,-0.33868569,0.33868569,955.26473,229.10381)">
      <path
         transform="translate(0,308.26772)"
         inkscape:connector-curvature="0"
         id="path4401"
         d="m -104.75388,423.86243 0,61.87534"
         style="fill:#3f6b00;fill-opacity:0.23076926;fill-rule:evenodd;stroke:#000000;stroke-width:2;stroke-linecap:butt;stroke-linejoin:miter;stroke-miterlimit:4;stroke-dasharray:none;stroke-opacity:1" />
      <path
         style="fill:#3f6b00;fill-opacity:0.23076926;fill-rule:evenodd;stroke:#000000;stroke-width:2;stroke-linecap:butt;stroke-linejoin:miter;stroke-miterlimit:4;stroke-dasharray:none;stroke-opacity:1"
         d="m -104.75388,423.86243 0,61.87534"
         id="path4403"
         inkscape:connector-curvature="0"
         transform="matrix(0,1,-1,0,350.04622,867.8217)" />
    </g>
  </g>
  <g
     inkscape:groupmode="layer"
     id="layer3"
     inkscape:label="Other">
    <flowRoot
       xml:space="preserve"
       id="flowRoot4251"
       style="font-style:normal;font-weight:normal;font-size:40px;line-height:125%;font-family:sans-serif;letter-spacing:0px;word-spacing:0px;fill:#000000;fill-opacity:1;stroke:none;stroke-width:1px;stroke-linecap:butt;stroke-linejoin:miter;stroke-opacity:1"
       transform="translate(-8.2095226,26)"><flowRegion
         id="flowRegion4253"><rect
           id="rect4255"
           width="280.25046"
           height="48.471085"
           x="410.65921"
           y="409.42642" /></flowRegion><flowPara
         id="flowPara4257">Window wall</flowPara></flowRoot>    <path
       style="fill:none;fill-rule:evenodd;stroke:#000000;stroke-width:1.63579808;stroke-linecap:butt;stroke-linejoin:miter;stroke-opacity:1;stroke-miterlimit:4;stroke-dasharray:9.81478845,9.81478845;stroke-dashoffset:0"
       d="m 835.90259,235.95169 0,183.45337"
       id="path4259"
       inkscape:connector-curvature="0"
       transform="matrix(1,0,0,1.0900647,0,-16.355316)" />
    <path
       style="fill:none;fill-rule:evenodd;stroke:#000000;stroke-width:1.61150408;stroke-linecap:butt;stroke-linejoin:miter;stroke-miterlimit:4;stroke-dasharray:6.44601633,1.61150408;stroke-dashoffset:0;stroke-opacity:1"
       d="m 885.82678,240.55722 0,178.84784"
       id="path4261"
       inkscape:connector-curvature="0"
       transform="matrix(1,0,0,2.289097,0,-310.10157)" />
    <path
       style="fill:none;fill-rule:evenodd;stroke:#000000;stroke-width:1.60009293;stroke-linecap:butt;stroke-linejoin:miter;stroke-miterlimit:4;stroke-dasharray:9.60055761,9.60055761;stroke-dashoffset:5.12029739;stroke-opacity:1"
       d="m 729.97554,245.93033 0,175.77749"
       id="path4263"
       inkscape:connector-curvature="0"
       transform="matrix(1,0,0,1.5117653,0,-131.36614)" />
    <path
       style="fill:none;fill-rule:evenodd;stroke:#000000;stroke-width:1.56309605;stroke-linecap:butt;stroke-linejoin:miter;stroke-miterlimit:4;stroke-dasharray:6.25238401, 6.25238401;stroke-dashoffset:0;stroke-opacity:1"
       d="m 330.83013,258.97931 0,167.33403"
       id="path4265"
       inkscape:connector-curvature="0"
       transform="matrix(1,0,0,2.0020351,0,-277.25295)" />
    <path
       style="fill:none;fill-rule:evenodd;stroke:#000000;stroke-width:1.60789706;stroke-linecap:butt;stroke-linejoin:miter;stroke-miterlimit:4;stroke-dasharray:4.82369117,4.82369117;stroke-dashoffset:0;stroke-opacity:1"
       d="m 224.70521,248.54896 0,176.9968"
       id="path4267"
       inkscape:connector-curvature="0"
       transform="matrix(1,0,0,2.2985578,0,-330.09861)" />
    <path
       style="fill:none;fill-rule:evenodd;stroke:#000000;stroke-width:1px;stroke-linecap:butt;stroke-linejoin:miter;stroke-opacity:1;marker-start:url(#marker4555);marker-end:url(#marker4551)"
       d="m 729.97554,440.89751 -399.14541,0"
       id="path4545"
       inkscape:connector-curvature="0"
       transform="matrix(1.3904595,0,0,1,-128.46512,137)" />
    <path
       style="fill:none;fill-rule:evenodd;stroke:#000000;stroke-width:1px;stroke-linecap:butt;stroke-linejoin:miter;stroke-opacity:1;marker-start:url(#marker4565);marker-end:url(#marker4569)"
       d="m 835.90259,440.89751 -105.92705,0"
       id="path4559"
       inkscape:connector-curvature="0"
       transform="matrix(1.4691544,0,0,1,-341.61734,64)" />
    <path
       style="fill:none;fill-rule:evenodd;stroke:#000000;stroke-width:1px;stroke-linecap:butt;stroke-linejoin:miter;stroke-opacity:1;marker-start:url(#marker4575);marker-end:url(#marker4579)"
       d="m 835.90259,440.89751 49.92419,0"
       id="path4573"
       inkscape:connector-curvature="0" />
    <path
       style="fill:none;fill-rule:evenodd;stroke:#000000;stroke-width:1px;stroke-linecap:butt;stroke-linejoin:miter;stroke-opacity:1;marker-start:url(#marker4589);marker-end:url(#marker4593)"
       d="m 224.70521,648.63013 661.12157,0"
       id="path4587"
       inkscape:connector-curvature="0" />
    <text
       xml:space="preserve"
       style="font-style:normal;font-weight:normal;font-size:40px;line-height:125%;font-family:sans-serif;letter-spacing:0px;word-spacing:0px;fill:#000000;fill-opacity:1;stroke:none;stroke-width:1px;stroke-linecap:butt;stroke-linejoin:miter;stroke-opacity:1"
       x="487.23679"
       y="660.14783"
       id="text4597"
       sodipodi:linespacing="125%"
       transform="translate(12.981442,11.250583)"><tspan
         sodipodi:role="line"
         x="487.23679"
         y="660.14783"
         id="tspan4601"
         style="font-size:22.5px">9314 mm</tspan></text>
    <text
       xml:space="preserve"
       style="font-style:normal;font-weight:normal;font-size:40px;line-height:125%;font-family:sans-serif;letter-spacing:0px;word-spacing:0px;fill:#000000;fill-opacity:1;stroke:none;stroke-width:1px;stroke-linecap:butt;stroke-linejoin:miter;stroke-opacity:1"
       x="487.23679"
       y="660.14783"
       id="text4597-2"
       sodipodi:linespacing="125%"
       transform="translate(68.279154,-57.097387)"><tspan
         sodipodi:role="line"
         x="487.23679"
         y="660.14783"
         id="tspan4601-3"
         style="font-size:22.5px">7814 mm</tspan></text>
    <text
       xml:space="preserve"
       style="font-style:normal;font-weight:normal;font-size:40px;line-height:125%;font-family:sans-serif;letter-spacing:0px;word-spacing:0px;fill:#000000;fill-opacity:1;stroke:none;stroke-width:1px;stroke-linecap:butt;stroke-linejoin:miter;stroke-opacity:1"
       x="487.23679"
       y="660.14783"
       id="text4597-0"
       sodipodi:linespacing="125%"
       transform="translate(270.54372,-127.68211)"><tspan
         sodipodi:role="line"
         x="487.23679"
         y="660.14783"
         id="tspan4601-7"
         style="font-size:22.5px">2186 mm</tspan></text>
    <text
       xml:space="preserve"
       style="font-style:normal;font-weight:normal;font-size:40px;line-height:125%;font-family:sans-serif;letter-spacing:0px;word-spacing:0px;fill:#000000;fill-opacity:1;stroke:none;stroke-width:1px;stroke-linecap:butt;stroke-linejoin:miter;stroke-opacity:1"
       x="487.23679"
       y="660.14783"
       id="text4597-3"
       sodipodi:linespacing="125%"
       transform="matrix(0.64380372,0,0,0.64380372,500.64654,35.045441)"><tspan
         sodipodi:role="line"
         x="487.23679"
         y="660.14783"
         id="tspan4601-8"
         style="font-size:22.5px">686 mm</tspan></text>
    <path
       style="fill:none;fill-rule:evenodd;stroke:#000000;stroke-width:1.61150411;stroke-linecap:butt;stroke-linejoin:miter;stroke-miterlimit:4;stroke-dasharray:19.33804939,19.33804939;stroke-dashoffset:0;stroke-opacity:1"
       d="m 885.82678,240.55722 0,178.84784"
       id="path4261-9"
       inkscape:connector-curvature="0"
       transform="matrix(0,-1,0.60057591,0,700.5013,1098.9815)" />
    <path
       transform="matrix(0,-1,0.60057591,0,700.5013,920.9815)"
       inkscape:connector-curvature="0"
       id="path4697"
       d="m 885.82678,240.55722 0,178.84784"
       style="fill:none;fill-rule:evenodd;stroke:#000000;stroke-width:1.61150408;stroke-linecap:butt;stroke-linejoin:miter;stroke-miterlimit:4;stroke-dasharray:19.33804939, 19.33804939;stroke-dashoffset:0;stroke-opacity:1" />
    <path
       style="fill:none;fill-rule:evenodd;stroke:#000000;stroke-width:1px;stroke-linecap:butt;stroke-linejoin:miter;stroke-opacity:1;marker-start:url(#marker4701);marker-end:url(#marker4705)"
       d="m 948.51067,35.433076 c 0,0 0,177.165354 0,177.165354"
       id="path4699"
       inkscape:connector-curvature="0" />
    <text
       xml:space="preserve"
       style="font-style:normal;font-weight:normal;font-size:40px;line-height:125%;font-family:sans-serif;letter-spacing:0px;word-spacing:0px;fill:#000000;fill-opacity:1;stroke:none;stroke-width:1px;stroke-linecap:butt;stroke-linejoin:miter;stroke-opacity:1"
       x="1001.3019"
       y="120.11986"
       id="text4709"
       sodipodi:linespacing="125%"
       transform="matrix(0,-1,1,0,858.96454,1175.4246)"><tspan
         sodipodi:role="line"
         id="tspan4711"
         x="1001.3019"
         y="120.11986"
         style="font-size:22.5px">2500 mm</tspan></text>
  </g>
  <g
     inkscape:groupmode="layer"
     id="layer2"
     inkscape:label="FOV"
     style="display:inline">
    <path
       transform="matrix(1.0858617,0,0,0.91544328,193.08624,-335.20387)"
       style="opacity:1;fill:#3f6be5;fill-opacity:0.23076926;fill-rule:nonzero;stroke:#000000;stroke-width:1;stroke-linecap:round;stroke-linejoin:round;stroke-miterlimit:4;stroke-dasharray:none;stroke-dashoffset:35.82170105;stroke-opacity:1"
       d="m 1.6282986,453.71457 227.4190414,-75.78301 0,440.86039 L 1.6282986,743.00894 Z"
       id="rect4317"
       inkscape:connector-curvature="0"
       sodipodi:nodetypes="ccccc" />
    <path
       sodipodi:nodetypes="ccccc"
       inkscape:connector-curvature="0"
       id="path4375"
       d="m 1.6282986,453.71457 227.4190414,-75.78301 0,440.86039 L 1.6282986,743.00894 Z"
       style="opacity:1;fill:#3f6be5;fill-opacity:0.23076926;fill-rule:nonzero;stroke:#000000;stroke-width:1;stroke-linecap:round;stroke-linejoin:round;stroke-miterlimit:4;stroke-dasharray:none;stroke-dashoffset:35.82170105;stroke-opacity:1"
       transform="matrix(-1.0858617,0,0,0.91544328,868.76498,-335.20387)" />
    <path
       sodipodi:nodetypes="ccccc"
       inkscape:connector-curvature="0"
       id="path4387"
       d="m 1.6282986,453.71457 227.4190414,-75.78301 0,440.86039 L 1.6282986,743.00894 Z"
       style="opacity:1;fill:#3f6b00;fill-opacity:0.23076926;fill-rule:nonzero;stroke:#000000;stroke-width:1;stroke-linecap:round;stroke-linejoin:round;stroke-miterlimit:4;stroke-dasharray:none;stroke-dashoffset:35.82170105;stroke-opacity:1"
       transform="matrix(1.0858617,0,0,0.91544328,299.38545,-335.20387)" />
    <path
       transform="matrix(-1.0858617,0,0,0.91544328,762.46577,-335.20387)"
       style="opacity:1;fill:#3f6b00;fill-opacity:0.23076926;fill-rule:nonzero;stroke:#000000;stroke-width:1;stroke-linecap:round;stroke-linejoin:round;stroke-miterlimit:4;stroke-dasharray:none;stroke-dashoffset:35.82170105;stroke-opacity:1"
       d="m 1.6282986,453.71457 227.4190414,-75.78301 0,440.86039 L 1.6282986,743.00894 Z"
       id="path4397"
       inkscape:connector-curvature="0"
       sodipodi:nodetypes="ccccc" />
  </g>
</svg>
